Combine
…
#create DTM
#we can do this using Tidytext and Tm

prueba <- tokens %>%
  unnest_tokens(word,text) %>%
  count(id,word)

tokens %>%
  select(text) %>%
  unnest_tokens(word,text) %>%
  count(word,sort = TRUE)

## # A tibble: 109,578 x 3
## # Groups:   id [4,289]
##       id word       n
##    <int> <chr>  <int>
##  1   335 writer    19
##  2  3701 girl      15
##  3  2697 water     14
##  4   174 song      12
##  5   335 yelp      12
##  6  2092 price     12
##  7  3701 scene     12
##  8  1630 id        11
##  9  2837 le        11
## 10  2837 reve      11
## #  with 109,568 more rows

dtm_prueba <- prueba %>%
  cast_dtm(id, word, n)

tokens %>%
  ungroup() %>%
    select(text) %>%
  unnest_tokens(word,text) %>%
  count(word,sort = TRUE) %>%
  top_n(100)

## # A tibble: 100 x 2
##    word           n
##    <chr>      <int>
##  1 song         735
##  2 worth        720
##  3 experience   623
##  4 theater      602
##  5 favorite     599
##  6 water        595
##  7 front        579
##  8 fun          570
##  9 michael      564
## 10 bad          561
## #  with 90 more rows
…
library(topicmodels)

ap_lda <- LDA(dtm_prueba, k = k_value, control = list(seed = 1234))
ap_lda

## A LDA_VEM topic model with 10 topics.

library(tidytext)

ap_topics <- tidy(ap_lda, matrix = "beta")
ap_topics

## # A tibble: 91,400 x 3
##    topic term      beta
##    <int> <chr>    <dbl>
##  1     1 admit 0.000711
##  2     2 admit 0.000343
##  3     3 admit 0.000654
##  4     4 admit 0.00108 
##  5     5 admit 0.000461
##  6     6 admit 0.000919
##  7     7 admit 0.000546
##  8     8 admit 0.000256
##  9     9 admit 0.000852
## 10    10 admit 0.000551
## #  with 91,390 more rows
…
beta_spread <- ap_topics %>%
  mutate(topic = paste0("topic", topic)) %>%
  spread(topic, beta) %>%
  filter(topic1 > .001 | topic2 > .001) %>%
  mutate(log_ratio = log2(topic2 / topic1))

beta_spread

## # A tibble: 315 x 12
##    term   topic1 topic10  topic2  topic3  topic4  topic5  topic6  topic7  topic8
##    <chr>   <dbl>   <dbl>   <dbl>   <dbl>   <dbl>   <dbl>   <dbl>   <dbl>   <dbl>
##  1 2     4.02e-3 7.16e-4 5.45e-3 3.34e-3 3.09e-3 2.26e-3 7.43e-4 2.10e-3 3.13e-3
##  2 3     1.12e-3 3.25e-4 1.73e-3 1.16e-3 6.46e-4 1.53e-4 3.54e-4 1.91e-4 3.12e-5
##  3 abso 4.79e-3 4.91e-3 1.57e-3 2.73e-3 6.44e-4 1.01e-3 7.90e-4 4.82e-3 5.32e-3
##  4 acro 6.15e-3 2.73e-3 1.20e-3 6.11e-4 2.30e-3 4.26e-3 4.20e-3 2.50e-3 3.10e-3
##  5 acti 1.23e-3 1.68e-3 7.06e-4 4.07e-4 1.96e-3 9.19e-4 1.56e-4 1.72e-3 2.16e-3
##  6 actor 2.26e-3 8.67e-4 4.75e-4 3.65e-5 8.49e-4 6.85e-4 9.79e-4 1.99e-3 8.53e-4
##  7 add   1.18e-3 6.50e-4 2.18e-3 1.89e-3 1.79e-4 1.75e-3 5.15e-4 1.89e-3 3.01e-4
##  8 aeri 1.52e-3 7.35e-5 5.69e-4 1.80e-3 1.90e-3 1.09e-3 1.39e-3 5.00e-4 3.70e-4
##  9 age   1.41e-3 7.16e-5 7.33e-4 1.45e-3 6.13e-4 2.05e-4 3.35e-5 8.14e-4 8.43e-4
## 10 ago   1.84e-4 9.76e-4 1.36e-3 2.85e-3 1.18e-3 8.94e-4 3.31e-4 9.23e-4 2.08e-3
## #  with 305 more rows, and 2 more variables: topic9 <dbl>, log_ratio <dbl>
…
